{
  "tracks": {
    "href": "https://api.spotify.com/v1/search?query=all+the+small+things&type=track&market=US&offset=0&limit=1",
    "items": [
      {
        "album": {
          "album_type": "album",
          "artists": [
            {
              "external_urls": {
                "spotify": "https://open.spotify.com/artist/6FBDaR13swtiWwGhX1WQsP"
              },
              "href": "https://api.spotify.com/v1/artists/6FBDaR13swtiWwGhX1WQsP",
              "id": "6FBDaR13swtiWwGhX1WQsP",
              "name": "blink-182",
              "type": "artist",
              "uri": "spotify:artist:6FBDaR13swtiWwGhX1WQsP"
            }
          ],
          "external_urls": {
            "spotify": "https://open.spotify.com/album/652N05EcNH1a4bIlUixQE2"
          },
          "href": "https://api.spotify.com/v1/albums/652N05EcNH1a4bIlUixQE2",
          "id": "652N05EcNH1a4bIlUixQE2",
          "images": [
            {
              "height": 640,
              "url": "https://i.scdn.co/image/ab67616d0000b2736da502e35a7a3e48de2b0f74",
              "width": 640
            },
            {
              "height": 300,
              "url": "https://i.scdn.co/image/ab67616d00001e026da502e35a7a3e48de2b0f74",
              "width": 300
            },
            {
              "height": 64,
              "url": "https://i.scdn.co/image/ab67616d000048516da502e35a7a3e48de2b0f74",
              "width": 64
            }
          ],
          "name": "Enema Of The State",
          "release_date": "1999-06-01",
          "release_date_precision": "day",
          "total_tracks": 12,
          "type": "album",
          "uri": "spotify:album:652N05EcNH1a4bIlUixQE2"
        },
        "artists": [
          {
            "external_urls": {
              "spotify": "https://open.spotify.com/artist/6FBDaR13swtiWwGhX1WQsP"
            },
            "href": "https://api.spotify.com/v1/artists/6FBDaR13swtiWwGhX1WQsP",
            "id": "6FBDaR13swtiWwGhX1WQsP",
            "name": "blink-182",
            "type": "artist",
            "uri": "spotify:artist:6FBDaR13swtiWwGhX1WQsP"
          }
        ],
        "disc_number": 1,
        "duration_ms": 167066,
        "explicit": false,
        "external_ids": {
          "isrc": "USMC19959123"
        },
        "external_urls": {
          "spotify": "https://open.spotify.com/track/2m1hi0nfMR9vdGC8UcrnwU"
        },
        "href": "https://api.spotify.com/v1/tracks/2m1hi0nfMR9vdGC8UcrnwU",
        "id": "2m1hi0nfMR9vdGC8UcrnwU",
        "is_local": false,
        "is_playable": true,
        "name": "All The Small Things",
        "popularity": 79,
        "preview_url": null,
        "track_number": 8,
        "type": "track",
        "uri": "spotify:track:2m1hi0nfMR9vdGC8UcrnwU"
      }
    ],
    "limit": 1,
    "next": "https://api.spotify.com/v1/search?query=all+the+small+things&type=track&market=US&offset=1&limit=1",
    "offset": 0,
    "previous": null,
    "total": 575
  }
}